Investigating the latest round of REACT | Theo Sanderson
…
#> Warning: Missing column names filled in: 'X1' [1]

total <- read_csv(url("https://raw.githubusercontent.com/mrc-ide/reactidd/master/inst/extdata/total.csv"))

#> Warning: Missing column names filled in: 'X1' [1]

positive$type = "positive"
total$type = "total"
all = bind_rows(positive, total)
colnames(all)[1] = "Date"

all = all %>% pivot_longer(c(-Date,-type),names_to="Region") %>% pivot_wider(names_from=type)
all

#> # A tibble: 1,485 x 4
#>    Date       Region                   positive total
#>    <date>     <chr>                       <dbl> <dbl>
#>  1 2020-05-05 South East                      0   113
#>  2 2020-05-05 North East                      0    13
#>  3 2020-05-05 North West                      1    73
#>  4 2020-05-05 Yorkshire and The Humber        0    33
#>  5 2020-05-05 East Midlands                   1    77
#>  6 2020-05-05 West Midlands                   0    51
#>  7 2020-05-05 East of England                 0    93
#>  8 2020-05-05 London                          0    39
#>  9 2020-05-05 South West                      0    42
#> 10 2020-05-06 South East                      0    62
#> # … with 1,475 more rowsm
…
