Turning a graph back into data | Theo Sanderson
…
OK, the coordinates look right. At this point we can throw away the old axes and just focus on the points.

values <- points_transformed %>%
  filter(y > 0) %>%
  mutate(Date = x, Ct = y) %>%
  select(-x, -y, -class,-id)

write_csv(values, "ons_ct_value_genes_detected_and_symptoms.csv")
values

#> # A tibble: 1,886 x 4
#>    symptoms genes_detected Date          Ct
#>    <chr>    <fct>          <date>     <dbl>
#>  1 yes      3              2020-04-28  26.8
#>  2 yes      3              2020-04-28  21.7
#>  3 yes      3              2020-05-07  22.9
#>  4 yes      3              2020-05-09  29.4
#>  5 yes      3              2020-05-10  21.8
#>  6 yes      3              2020-05-10  27.3
#>  7 yes      3              2020-05-11  18.1
#>  8 yes      3              2020-05-11  16.8
#>  9 yes      3              2020-05-11  27.3
#> 10 yes      3              2020-05-13  19.3
#> # … with 1,876 more rowsm
…
